{
	"info": {
		"_postman_id": "810f7806-afd3-4e04-a2aa-44b68527c91a",
		"name": "musictape/likes",
		"schema": "https://schema.getpostman.com/json/collection/v2.1.0/collection.json",
		"_exporter_id": "16706006"
	},
	"item": [
		{
			"name": "Post Like",
			"request": {
				"auth": {
					"type": "bearer",
					"bearer": [
						{
							"key": "token",
							"value": "eyJhbGciOiJSUzI1NiIsInR5cCI6IkpXVCJ9.eyJpZCI6Mn0.T922P4p9rsu2HTwJ2cnlLl0JkEwJNYzU1_3ZBZCQ7yEgYCbYpsUKnPp6C2qezl-BYX418swdO_VkpgeZAx6JOkUXllg4xy_rPEkFG74Thy2vN0eNU77hWU9ltOmOSOL8GWFggvexG6-zefkp1nyiqeT1YcfNX7SgXd8hF6dF3bfCHLbcUW5Iaw-DYZexz0UzCH7_9uNybzIpsB3D8srhttLXkK9QNV1DycgGayhXC2wlYwEiSug40dU4a3Yx6FEtoe4u1lmil424edlMPELzr51OjovhiJZ_0AuB3yQTonNYuB6LUiD4j3BSnV4e8XlmYUsWnx03WYxeNb3GXnW1V_caCa1mK3eBVzZ1ssyxc283NiwWI6496ilJIRnW_NidNnv4v-Cb5Jys_XJWJPJOZYP2LWGBtz9xqL9MSotj__b0P4PxqsKQbXQ78HI4Wdry8gpU3Z_-f9BiVUbMiUmnZnKUK51YZK8rwR0qCeS_ano5GED95_ldADJlBjtI0R2t",
							"type": "string"
						}
					]
				},
				"method": "POST",
				"header": [],
				"body": {
					"mode": "raw",
					"raw": "{\r\n    \"userId\": 2,\r\n    \"likedUserId\": 4\r\n}",
					"options": {
						"raw": {
							"language": "json"
						}
					}
				},
				"url": {
					"raw": "http://localhost:80/likes",
					"protocol": "http",
					"host": [
						"localhost"
					],
					"port": "80",
					"path": [
						"likes"
					]
				}
			},
			"response": []
		},
		{
			"name": "Update Like",
			"request": {
				"auth": {
					"type": "bearer",
					"bearer": [
						{
							"key": "token",
							"value": "eyJhbGciOiJSUzI1NiIsInR5cCI6IkpXVCJ9.eyJpZCI6Mn0.T922P4p9rsu2HTwJ2cnlLl0JkEwJNYzU1_3ZBZCQ7yEgYCbYpsUKnPp6C2qezl-BYX418swdO_VkpgeZAx6JOkUXllg4xy_rPEkFG74Thy2vN0eNU77hWU9ltOmOSOL8GWFggvexG6-zefkp1nyiqeT1YcfNX7SgXd8hF6dF3bfCHLbcUW5Iaw-DYZexz0UzCH7_9uNybzIpsB3D8srhttLXkK9QNV1DycgGayhXC2wlYwEiSug40dU4a3Yx6FEtoe4u1lmil424edlMPELzr51OjovhiJZ_0AuB3yQTonNYuB6LUiD4j3BSnV4e8XlmYUsWnx03WYxeNb3GXnW1V_caCa1mK3eBVzZ1ssyxc283NiwWI6496ilJIRnW_NidNnv4v-Cb5Jys_XJWJPJOZYP2LWGBtz9xqL9MSotj__b0P4PxqsKQbXQ78HI4Wdry8gpU3Z_-f9BiVUbMiUmnZnKUK51YZK8rwR0qCeS_ano5GED95_ldADJlBjtI0R2t",
							"type": "string"
						}
					]
				},
				"method": "PATCH",
				"header": [],
				"body": {
					"mode": "raw",
					"raw": "{\r\n    \"status\": 2 \r\n}",
					"options": {
						"raw": {
							"language": "json"
						}
					}
				},
				"url": {
					"raw": "http://localhost:81/likes/1",
					"protocol": "http",
					"host": [
						"localhost"
					],
					"port": "81",
					"path": [
						"likes",
						"1"
					]
				}
			},
			"response": []
		},
		{
			"name": "Get Likes",
			"request": {
				"auth": {
					"type": "bearer",
					"bearer": [
						{
							"key": "token",
							"value": "eyJhbGciOiJSUzI1NiIsInR5cCI6IkpXVCJ9.eyJpZCI6Mn0.T922P4p9rsu2HTwJ2cnlLl0JkEwJNYzU1_3ZBZCQ7yEgYCbYpsUKnPp6C2qezl-BYX418swdO_VkpgeZAx6JOkUXllg4xy_rPEkFG74Thy2vN0eNU77hWU9ltOmOSOL8GWFggvexG6-zefkp1nyiqeT1YcfNX7SgXd8hF6dF3bfCHLbcUW5Iaw-DYZexz0UzCH7_9uNybzIpsB3D8srhttLXkK9QNV1DycgGayhXC2wlYwEiSug40dU4a3Yx6FEtoe4u1lmil424edlMPELzr51OjovhiJZ_0AuB3yQTonNYuB6LUiD4j3BSnV4e8XlmYUsWnx03WYxeNb3GXnW1V_caCa1mK3eBVzZ1ssyxc283NiwWI6496ilJIRnW_NidNnv4v-Cb5Jys_XJWJPJOZYP2LWGBtz9xqL9MSotj__b0P4PxqsKQbXQ78HI4Wdry8gpU3Z_-f9BiVUbMiUmnZnKUK51YZK8rwR0qCeS_ano5GED95_ldADJlBjtI0R2t",
							"type": "string"
						}
					]
				},
				"method": "GET",
				"header": [],
				"url": {
					"raw": "http://localhost:80/likes",
					"protocol": "http",
					"host": [
						"localhost"
					],
					"port": "80",
					"path": [
						"likes"
					]
				}
			},
			"response": []
		}
	]
}